{
  "services": [
    "\\Flubber\\Extension\\Facade\\History",
    "\\Flubber\\Extension\\Facade\\Kind",
    "\\Flubber\\Extension\\Facade\\Plan",
    "\\Flubber\\Extension\\Facade\\Position",
    "\\Flubber\\Extension\\Facade\\Producer",
    "\\Flubber\\Extension\\Facade\\Size",
    "\\Flubber\\Extension\\Facade\\Type",
    "\\Flubber\\Extension\\Facade\\Workspace"
  ]
}